{
  "IcoMoonType": "selection",
  "icons": [
    {
      "icon": {
        "paths": [
          "M6.328 592h3287.272l-286.4 287.2 112.8 112.8 480-480-480-480-112.8 112.8 286.4 287.2h-3287.272z"
        ],
        "attrs": [
          {}
        ],
        "width": 3648,
        "isMulticolor": false,
        "isMulticolor2": false,
        "grid": 24,
        "tags": [
          "arow-right"
        ]
      },
      "attrs": [
        {}
      ],
      "properties": {
        "order": 26,
        "id": 851,
        "name": "arow-right",
        "prevSize": 24,
        "code": 59648
      },
      "setIdx": 0,
      "setId": 0,
      "iconIdx": 0
    },
    {
      "icon": {
        "paths": [
          "M3641.672 432h-3287.272l286.4-287.2-112.8-112.8-480 480 480 480 112.8-112.8-286.4-287.2h3287.272z"
        ],
        "attrs": [
          {}
        ],
        "width": 3648,
        "isMulticolor": false,
        "isMulticolor2": false,
        "grid": 24,
        "tags": [
          "arrow-left"
        ]
      },
      "attrs": [
        {}
      ],
      "properties": {
        "order": 25,
        "id": 850,
        "name": "arrow-left",
        "prevSize": 24,
        "code": 59649
      },
      "setIdx": 0,
      "setId": 0,
      "iconIdx": 1
    },
    {
      "icon": {
        "paths": [
          "M48.579 106.496l897.884 897.925 57.917-57.876-28.836-29.082-897.966-897.802-57.917 57.836z",
          "M110.879 979.763l897.843-897.843-57.917-57.917-926.802 926.802 57.917 57.917z"
        ],
        "attrs": [
          {
            "fill": "rgb(51, 51, 51)"
          },
          {
            "fill": "rgb(51, 51, 51)"
          }
        ],
        "isMulticolor": false,
        "isMulticolor2": false,
        "grid": 24,
        "tags": [
          "cross"
        ],
        "colorPermutations": {
          "1209646415151511": [
            {
              "f": 1
            },
            {
              "f": 1
            }
          ]
        }
      },
      "attrs": [
        {
          "fill": "rgb(51, 51, 51)"
        },
        {
          "fill": "rgb(51, 51, 51)"
        }
      ],
      "properties": {
        "order": 23,
        "id": 848,
        "name": "cross",
        "prevSize": 24,
        "code": 59650
      },
      "setIdx": 0,
      "setId": 0,
      "iconIdx": 3
    },
    {
      "icon": {
        "paths": [
          "M51.796 515.13c-47.506-94.669-51.796-158.957-51.796-158.957h670.255c0 0-8.628 77.223-49.644 158.957-70.694 140.875-285.484 508.87-285.484 508.87s-219.128-380.929-283.331-508.87z",
          "M670.255 333.913c0 184.415-150.042 333.913-335.127 333.913s-335.127-149.498-335.127-333.913c0-184.415 150.042-333.913 335.127-333.913s335.127 149.498 335.127 333.913z"
        ],
        "attrs": [
          {
            "fill": "rgb(209, 64, 64)"
          },
          {
            "fill": "rgb(209, 64, 64)"
          }
        ],
        "width": 670,
        "isMulticolor": false,
        "isMulticolor2": false,
        "grid": 24,
        "tags": [
          "map-maker"
        ]
      },
      "attrs": [
        {
          "fill": "rgb(209, 64, 64)"
        },
        {
          "fill": "rgb(209, 64, 64)"
        }
      ],
      "properties": {
        "order": 24,
        "id": 847,
        "name": "map-maker",
        "prevSize": 24,
        "code": 59651
      },
      "setIdx": 0,
      "setId": 0,
      "iconIdx": 4
    },
    {
      "icon": {
        "paths": [
          "M69.818 93.091h1442.909v-93.091h-1489.455v93.091zM302.545 558.545h1210.182v-93.091h-1256.727v93.091zM535.273 1024h977.455v-93.091h-1024v93.091z"
        ],
        "attrs": [
          {
            "fill": "rgb(51, 51, 51)"
          }
        ],
        "width": 1536,
        "isMulticolor": false,
        "isMulticolor2": false,
        "grid": 24,
        "tags": [
          "menu"
        ],
        "colorPermutations": {
          "1209646415151511": [
            {
              "f": 1
            }
          ]
        }
      },
      "attrs": [
        {
          "fill": "rgb(51, 51, 51)"
        }
      ],
      "properties": {
        "order": 22,
        "id": 846,
        "name": "menu",
        "prevSize": 24,
        "code": 59652
      },
      "setIdx": 0,
      "setId": 0,
      "iconIdx": 5
    },
    {
      "icon": {
        "paths": [
          "M473.616 39.191v961.939h62.061v-992.97h-62.061z",
          "M39.191 540.362h961.939v-62.061h-992.97v62.061z"
        ],
        "attrs": [
          {
            "fill": "rgb(0, 0, 0)"
          },
          {
            "fill": "rgb(0, 0, 0)"
          }
        ],
        "isMulticolor": false,
        "isMulticolor2": false,
        "grid": 24,
        "tags": [
          "plus"
        ],
        "colorPermutations": {
          "1209646415151511": [
            {
              "f": 0
            },
            {
              "f": 0
            }
          ]
        }
      },
      "attrs": [
        {
          "fill": "rgb(0, 0, 0)"
        },
        {
          "fill": "rgb(0, 0, 0)"
        }
      ],
      "properties": {
        "order": 21,
        "id": 845,
        "name": "plus",
        "prevSize": 24,
        "code": 59653
      },
      "setIdx": 0,
      "setId": 0,
      "iconIdx": 6
    },
    {
      "icon": {
        "paths": [
          "M282 460c62 120 162 220 282 282l94-94c12-12 30-16 44-10 48 16 100 24 152 24 24 0 42 18 42 42v150c0 24-18 42-42 42-400 0-726-326-726-726 0-24 18-42 42-42h150c24 0 42 18 42 42 0 54 8 104 24 152 4 14 2 32-10 44z"
        ],
        "attrs": [],
        "isMulticolor": false,
        "isMulticolor2": false,
        "tags": [
          "phone"
        ],
        "defaultCode": 57549,
        "grid": 24
      },
      "attrs": [],
      "properties": {
        "order": 9,
        "ligatures": "call, local_phone, phone",
        "id": 120,
        "prevSize": 24,
        "code": 57549,
        "name": "phone"
      },
      "setIdx": 0,
      "setId": 0,
      "iconIdx": 127
    },
    {
      "icon": {
        "paths": [
          "M854 342v-86l-342 214-342-214v86l342 212zM854 170c46 0 84 40 84 86v512c0 46-38 86-84 86h-684c-46 0-84-40-84-86v-512c0-46 38-86 84-86h684z"
        ],
        "attrs": [],
        "isMulticolor": false,
        "isMulticolor2": false,
        "tags": [
          "markunread"
        ],
        "defaultCode": 57689,
        "grid": 24
      },
      "attrs": [],
      "properties": {
        "order": 10,
        "ligatures": "email, local_post_office, mail, markunread",
        "id": 242,
        "prevSize": 24,
        "code": 57689,
        "name": "mail"
      },
      "setIdx": 0,
      "setId": 0,
      "iconIdx": 249
    },
    {
      "icon": {
        "paths": [
          "M316 334l196 196 196-196 60 60-256 256-256-256z"
        ],
        "attrs": [],
        "isMulticolor": false,
        "isMulticolor2": false,
        "tags": [
          "keyboard_arrow_down"
        ],
        "defaultCode": 58131,
        "grid": 24
      },
      "attrs": [],
      "properties": {
        "order": 11,
        "ligatures": "keyboard_arrow_down",
        "id": 411,
        "prevSize": 24,
        "code": 58131,
        "name": "caret-down"
      },
      "setIdx": 0,
      "setId": 0,
      "iconIdx": 418
    }
  ],
  "height": 1024,
  "metadata": {
    "name": "icomoon"
  },
  "preferences": {
    "showGlyphs": true,
    "showCodes": true,
    "showQuickUse": true,
    "showQuickUse2": true,
    "showSVGs": true,
    "fontPref": {
      "prefix": "icon-",
      "metadata": {
        "fontFamily": "icomoon"
      },
      "metrics": {
        "emSize": 1024,
        "baseline": 6.25,
        "whitespace": 50
      },
      "embed": false
    },
    "imagePref": {
      "prefix": "icon-",
      "png": true,
      "useClassSelector": true,
      "color": 0,
      "bgColor": 16777215
    },
    "historySize": 100
  }
}